{
  "totaal": {
    "aantal_inwoners": "Aantal inwoners",
    "percentage": "Groei voorzieningen",
    "diff_aandeel_65Plus": "Inwoners boven de 65 jaar",
    "diff_aandeel_ao": "Inwoners met een arbeidsongeschiktheidsuitkering"
  },
  "huishouden": {
    "aantal_inwoners": "Aantal inwoners",
    "percentage": "Groei voorzieningen",
    "diff_aandeel_65Plus": "Inwoners boven de 65 jaar (wijk)",
    "diff_aandeel.mannen.en.vrouwen_75Plus": "Inwoners boven de 75 jaar (gemeente)",
    "diff_aandeel_ao": "Inwoners met een arbeidsongeschiktheidsuitkering"
  },
  "ondersteuning": {
    "aantal_inwoners": "Aantal inwoners",
    "percentage": "Groei voorzieningen",
    "diff_aandeel_65Plus": "Inwoners boven de 65 jaar",
    "diff_aandeel_GGZ_gebruikers": "GGZ-gebruikers"
  },
  "hulpmiddel": {
    "aantal_inwoners": "Aantal inwoners",
    "percentage": "Groei voorzieningen",
    "diff_aandeel_65Plus": "Inwoners boven de 65 jaar",
    "diff_aandeel_inBezitWoningcorporatie": "Woningcorporatiewoningen"
  }
}
