{  
  "wmo_imputaties" : {
    "2018" : {
        "GM0017" : "GM0014", // Haren naar Groningen
        "GM0214" : "GM1740", // Buren naar Neder-Betuwe
        "WK021403" : "WK174001" //Wijk in Buren, naar wijk in Neder-Betuwe
    }
  }
}